^D:\UNREALENGINE4\PROJECTS\SKILL_C++\SKILL_C++\X64\DEBUG\SKILL_C++.OBJ
D:\UNREALENGINE4\PROJECTS\SKILL_C++\X64\DEBUG\SKILL_C++.EXE
D:\UNREALENGINE4\PROJECTS\SKILL_C++\SKILL_C++\X64\DEBUG\SKILL_C++.ILK
D:\UNREALENGINE4\PROJECTS\SKILL_C++\X64\DEBUG\SKILL_C++.PDB
